^D:\УНИВЕР\4 СЕМ\ОС\LAB_3\LAB_3\LAB_3\X64\DEBUG\MAIN.OBJ
/OUT:"D:\УНИВЕР\4 СЕМ\ОС\LAB_3\LAB_3\X64\DEBUG\LAB_3.EXE" /INCREMENTAL /NOLOGO KERNEL32.LIB USER32.LIB GDI32.LIB WINSPOOL.LIB COMDLG32.LIB ADVAPI32.LIB SHELL32.LIB OLE32.LIB OLEAUT32.LIB UUID.LIB ODBC32.LIB ODBCCP32.LIB /MANIFEST /MANIFESTUAC:"level='asInvoker' uiAccess='false'" /manifest:embed /DEBUG:FASTLINK /PDB:"D:\УНИВЕР\4 СЕМ\ОС\LAB_3\LAB_3\X64\DEBUG\LAB_3.PDB" /TLBID:1 /DYNAMICBASE /NXCOMPAT /IMPLIB:"D:\УНИВЕР\4 СЕМ\ОС\LAB_3\LAB_3\X64\DEBUG\LAB_3.LIB" /MACHINE:X64 X64\DEBUG\MAIN.OBJ
^D:\УНИВЕР\4 СЕМ\ОС\LAB_3\LAB_3\LAB_3\X64\DEBUG\MAIN.OBJ|D:\УНИВЕР\4 СЕМ\ОС\LAB_3\LAB_3\LAB_3\X64\DEBUG\MARKER.OBJ
/OUT:"D:\УНИВЕР\4 СЕМ\ОС\LAB_3\LAB_3\X64\DEBUG\LAB_3.EXE" /INCREMENTAL /NOLOGO KERNEL32.LIB USER32.LIB GDI32.LIB WINSPOOL.LIB COMDLG32.LIB ADVAPI32.LIB SHELL32.LIB OLE32.LIB OLEAUT32.LIB UUID.LIB ODBC32.LIB ODBCCP32.LIB /MANIFEST /MANIFESTUAC:"level='asInvoker' uiAccess='false'" /manifest:embed /DEBUG:FASTLINK /PDB:"D:\УНИВЕР\4 СЕМ\ОС\LAB_3\LAB_3\X64\DEBUG\LAB_3.PDB" /TLBID:1 /DYNAMICBASE /NXCOMPAT /IMPLIB:"D:\УНИВЕР\4 СЕМ\ОС\LAB_3\LAB_3\X64\DEBUG\LAB_3.LIB" /MACHINE:X64 X64\DEBUG\MAIN.OBJX64\DEBUG\MARKER.OBJ
